4b7e78e9a9313d583a8ef7f3495246a56c95c8949a4f6f0e4c9f00c48c721f10  tor-browser-linux64-8.5.5_ar.tar.xz
7158be7b7bc83657f87ef01a1d59557dbfc2c348fd297a5d1a1b92ec17e1de74  tor-browser-linux64-8.5.5_ca.tar.xz
78620f83bfb2c8a1668995fb164fb2310e9911e11d8d0bc54f85a00388fd1567  tor-browser-linux64-8.5.5_cs.tar.xz
93f385a00a1e9d917d11a2286b98ec00ecaef1e4c830b2350987c5adeb575e66  tor-browser-linux64-8.5.5_da.tar.xz
3ab302fc4cbaa3b2b0ce6df25f7a37da635b8df964b30398e7ba5e42ecae1ef5  tor-browser-linux64-8.5.5_de.tar.xz
04713618a125f647d7c024aff03647e920be9cadbc9f3312dff4990e67abaff8  tor-browser-linux64-8.5.5_el.tar.xz
5f334f14161952476adde3fbd843f93f647d47a0d7e30eb5d1635fb7569a2503  tor-browser-linux64-8.5.5_en-US.tar.xz
5f0fc4eef164189a17551ab9ac17137eb997cc14dab2599e5048badd0f6c843e  tor-browser-linux64-8.5.5_es-AR.tar.xz
0663fe89a6388cd79121e7fae4d8d499fc880d00b321ce161a4a309533d412dc  tor-browser-linux64-8.5.5_es-ES.tar.xz
293daa199bad9d75a229653739713320d0afa2819c504eaac692c3eab062c0d5  tor-browser-linux64-8.5.5_fa.tar.xz
8098c0fb6916501fe1f91e8792fbdf93127bcb7c1675e3694b343446a2d35296  tor-browser-linux64-8.5.5_fr.tar.xz
4c9702a1783c15fa99ca4c2ac3306f0c3aa79d2863bb8871f35ff383b00f2750  tor-browser-linux64-8.5.5_ga-IE.tar.xz
718313f482445dcf4c63df93573929491d24f5592731b2f03bbc17d6b1408db9  tor-browser-linux64-8.5.5_he.tar.xz
46108de7212a9123b84ab0142a1bd3604b9570bd978ee5f00de035725fbe7afa  tor-browser-linux64-8.5.5_hu.tar.xz
c082f211d410d50b316bfe41bf6f27bfcb314b16fc086c2a45df50f97e989611  tor-browser-linux64-8.5.5_id.tar.xz
4b4ed0e68ae2b46029a874bad167c2b6681ba47a549b41cfddbec3989c44ff3c  tor-browser-linux64-8.5.5_is.tar.xz
2c717015170a4131425a99f8a8d73223d45d16bb3ef80ae6276f6c70cbb863b5  tor-browser-linux64-8.5.5_it.tar.xz
2c1a8eddba2d37011435c67c165b0dee08f8dcfc8a09e8046a4688d814288f59  tor-browser-linux64-8.5.5_ja.tar.xz
eadd1ca60d22b1babdbeefe4c89d302ae024dff605cd0effb0deb2d43366bdd8  tor-browser-linux64-8.5.5_ka.tar.xz
322dc6990e1bbc77220fe511316bd535c708b17daa216dbdad60cc5f820d0b4a  tor-browser-linux64-8.5.5_ko.tar.xz
6395cce407ddd28421fcf73dadbf5612078ed65f770b556a8ab887600b1ae329  tor-browser-linux64-8.5.5_nb-NO.tar.xz
5fd0b921db49a2e7084fa384d5a0f00cbe5792d148017fcba58602e38227dc25  tor-browser-linux64-8.5.5_nl.tar.xz
77ba5c6ba052c08fe320ce16a923e2c25c371aba8b5741802430b3f611c05947  tor-browser-linux64-8.5.5_pl.tar.xz
4c2224873d8492915750b8ecf728957129de6354fc34345c929afec98b58bc50  tor-browser-linux64-8.5.5_pt-BR.tar.xz
c6dcca4e586c7ecc1f0ccef20af4d3ef17da3dded4af854f647bd098a82de985  tor-browser-linux64-8.5.5_ru.tar.xz
2a1b6f21cc8399db6d60156305a3172d35fcd6b54efd68a4c98786d21b83fc51  tor-browser-linux64-8.5.5_sv-SE.tar.xz
6f72d23528d19e70d24436702843c26bf81525752f83285fff551369a332edc6  tor-browser-linux64-8.5.5_tr.tar.xz
ab63b069dc7e4f5f1457610f3bad65a05e6ec838e7e1fd5b8f8fd3fe2f73bb56  tor-browser-linux64-8.5.5_vi.tar.xz
1f9dbcb6aa2491b6f6dc921d98c33026357cfb4ce2b6c22e8ca3625c875ec681  tor-browser-linux64-8.5.5_zh-CN.tar.xz
4e0476cb98f4fe768456bd51857ce5f23891197318a789c3fce2adae0b9339d8  tor-browser-linux64-8.5.5_zh-TW.tar.xz
